{"data":[{"id":683,"title":"Seasonal Events — Up to 30% Off (e.g., Black Friday)","code":null,"ends_at":null,"merchant_id":114,"coupon_type":"deal","description":"Ulanzi’s Black Friday page historically shows 15%–30% off by category; watch the sale hub as the season goes live.","type_text":null,"show_proof":false,"proof_image_url":null,"is_editor":true,"click_count":518,"merchant":{"slug":"ulanzi-coupons","name":"Ulanzi","logo_url":"https://gtqghwfnbzqzwkkitbet.supabase.co/storage/v1/object/public/merchant-images/merchants/2025/09/1758873381459-ula.png"},"merchant_name":"Ulanzi"},{"id":682,"title":"Free Shipping — Orders $79+","code":null,"ends_at":null,"merchant_id":114,"coupon_type":"deal","description":"Storewide policy advertises free standard shipping on orders over $79.","type_text":null,"show_proof":false,"proof_image_url":null,"is_editor":false,"click_count":546,"merchant":{"slug":"ulanzi-coupons","name":"Ulanzi","logo_url":"https://gtqghwfnbzqzwkkitbet.supabase.co/storage/v1/object/public/merchant-images/merchants/2025/09/1758873381459-ula.png"},"merchant_name":"Ulanzi"},{"id":681,"title":"Top Deals — Live Markdown Collections","code":null,"ends_at":null,"merchant_id":114,"coupon_type":"deal","description":"Top Deals pages surface current price drops across lighting, tripods, and camera gear.","type_text":null,"show_proof":false,"proof_image_url":null,"is_editor":true,"click_count":509,"merchant":{"slug":"ulanzi-coupons","name":"Ulanzi","logo_url":"https://gtqghwfnbzqzwkkitbet.supabase.co/storage/v1/object/public/merchant-images/merchants/2025/09/1758873381459-ula.png"},"merchant_name":"Ulanzi"},{"id":680,"title":"5% Off Every Purchase — Ulanzi Membership (U‑Credits)","code":null,"ends_at":null,"merchant_id":114,"coupon_type":"deal","description":"Join the free membership program to unlock member prices (5% off) and earn U‑Credits toward coupons.","type_text":null,"show_proof":false,"proof_image_url":null,"is_editor":false,"click_count":495,"merchant":{"slug":"ulanzi-coupons","name":"Ulanzi","logo_url":"https://gtqghwfnbzqzwkkitbet.supabase.co/storage/v1/object/public/merchant-images/merchants/2025/09/1758873381459-ula.png"},"merchant_name":"Ulanzi"},{"id":679,"title":"10% Off First Order — Newsletter Exclusive","code":"EMAIL","ends_at":null,"merchant_id":114,"coupon_type":"coupon","description":"Subscribe on ulanzi.com to receive a 10% off first‑order coupon via email.","type_text":null,"show_proof":false,"proof_image_url":null,"is_editor":true,"click_count":570,"merchant":{"slug":"ulanzi-coupons","name":"Ulanzi","logo_url":"https://gtqghwfnbzqzwkkitbet.supabase.co/storage/v1/object/public/merchant-images/merchants/2025/09/1758873381459-ula.png"},"merchant_name":"Ulanzi"},{"id":678,"title":"Community Resources — Member Reviews & Success Stories","code":null,"ends_at":null,"merchant_id":113,"coupon_type":"deal","description":"Explore community pages for case studies and resources that help you evaluate membership value before purchase.","type_text":null,"show_proof":false,"proof_image_url":null,"is_editor":false,"click_count":599,"merchant":{"slug":"humbled-trader-coupons","name":"Humbled Trader","logo_url":"https://gtqghwfnbzqzwkkitbet.supabase.co/storage/v1/object/public/merchant-images/merchants/2025/09/1758935484405-humb.png"},"merchant_name":"Humbled Trader"},{"id":677,"title":"Learning Hub — Free Blog Lessons & Platform Guides","code":null,"ends_at":null,"merchant_id":113,"coupon_type":"deal","description":"Recent blog posts provide up‑to‑date platform comparisons, tutorials, and strategy guides at no charge.","type_text":null,"show_proof":false,"proof_image_url":null,"is_editor":false,"click_count":603,"merchant":{"slug":"humbled-trader-coupons","name":"Humbled Trader","logo_url":"https://gtqghwfnbzqzwkkitbet.supabase.co/storage/v1/object/public/merchant-images/merchants/2025/09/1758935484405-humb.png"},"merchant_name":"Humbled Trader"},{"id":676,"title":"Broker Perks — HT Exclusive Discounts (e.g., 60 Days $0 Commissions)","code":null,"ends_at":null,"merchant_id":113,"coupon_type":"deal","description":"Preferred brokers page aggregates time‑boxed perks like 60 days of free commissions, platform trials, and lowered minimums.","type_text":null,"show_proof":false,"proof_image_url":null,"is_editor":true,"click_count":612,"merchant":{"slug":"humbled-trader-coupons","name":"Humbled Trader","logo_url":"https://gtqghwfnbzqzwkkitbet.supabase.co/storage/v1/object/public/merchant-images/merchants/2025/09/1758935484405-humb.png"},"merchant_name":"Humbled Trader"}],"meta":{"total":677,"page":1,"limit":8,"canonical":{},"prev":null,"next":"https://savingharbor.com/coupons?type=all&status=active&sort=latest&locale=en&page=2&limit=8","total_pages":85,"jsonld":{"offers":[]}}}