{"data":[{"id":16,"slug":"mainwp-coupons","name":"MainWP","logo_url":"https://gtqghwfnbzqzwkkitbet.supabase.co/storage/v1/object/public/merchant-images/merchants/2025/09/1758564104098-mainwp.png","stats":{"active_coupons":10}},{"id":17,"slug":"upviral-coupons","name":"Upviral","logo_url":"https://gtqghwfnbzqzwkkitbet.supabase.co/storage/v1/object/public/merchant-images/merchants/2025/09/1758644657376-upviral.png","stats":{"active_coupons":10}},{"id":18,"slug":"cambly-coupons","name":"Cambly","logo_url":"https://gtqghwfnbzqzwkkitbet.supabase.co/storage/v1/object/public/merchant-images/merchants/2025/09/1758643996875-cambly.png","stats":{"active_coupons":10}},{"id":19,"slug":"rogue-energy-coupons","name":"Rogue Energy","logo_url":"https://gtqghwfnbzqzwkkitbet.supabase.co/storage/v1/object/public/merchant-images/merchants/2025/09/1758645428396-rogueenenergy.png","stats":{"active_coupons":10}},{"id":20,"slug":"loan-signing-system-coupons","name":"Loan Signing System","logo_url":"https://gtqghwfnbzqzwkkitbet.supabase.co/storage/v1/object/public/merchant-images/merchants/2025/09/1758654590278-loansigning.png","stats":{"active_coupons":10}},{"id":21,"slug":"outsource-school-coupons","name":"Outsource School","logo_url":"https://gtqghwfnbzqzwkkitbet.supabase.co/storage/v1/object/public/merchant-images/merchants/2025/09/1758655255801-outsource.png","stats":{"active_coupons":10}},{"id":22,"slug":"myid-coupons","name":"myID","logo_url":"https://gtqghwfnbzqzwkkitbet.supabase.co/storage/v1/object/public/merchant-images/merchants/2025/09/1758655982549-myid.png","stats":{"active_coupons":10}},{"id":23,"slug":"digital-kickstart-coupons","name":"Digital Kickstart","logo_url":"https://gtqghwfnbzqzwkkitbet.supabase.co/storage/v1/object/public/merchant-images/merchants/2025/09/1758707016956-digitalkickstart.png","stats":{"active_coupons":10}}],"meta":{"page":1,"limit":8,"total":110,"canonical":"https://savingharbor.com/public/v1/stores?sort=newest&limit=8","prev":null,"next":"https://savingharbor.com/stores?sort=newest&locale=en&page=2&limit=8","total_pages":14}}